{
  "users": [
    {
      "email": "davi@gmail.com",
      "password": "$2a$10$5JjxHo85g1aBCXP6xPL85uQYwRfMe4NJ0vXj9Pu6MfFn5mqcoK3iu",
      "name": "Davi",
      "age": 20,
      "id": 1
    }
  ],
  "author": [
    {
      "author": "Clarice Lispector",
      "age": 56,
      "id": 1
    },
    {
      "author": "Carlos Drummond",
      "age": 84,
      "id": 2
    },
    {
      "author": "Agatha Mary",
      "age": 85,
      "id": 3
    },
    {
      "author": "William Shakespeare",
      "age": 52,
      "id": 4
    }
  ],
  "books": [
    {
      "book": "A hora da estrela",
      "authorId": 1,
      "userId": 1,
      "id": 1
    },
    {
      "book": "A rosa do povo",
      "authorId": 2,
      "userId": 1,
      "id": 2
    },
    {
      "book": "Death on the Nile",
      "authorId": 3,
      "userId": 1,
      "id": 3
    },
    {
      "book": "Hamlet",
      "authorId": 4,
      "userId": 1,
      "id": 4
    }
  ]
}